%YAML 1.1
%TAG !u! tag:unity3d.com,2011:
--- !u!114 &11400000
MonoBehaviour:
  m_ObjectHideFlags: 0
  m_CorrespondingSourceObject: {fileID: 0}
  m_PrefabInstance: {fileID: 0}
  m_PrefabAsset: {fileID: 0}
  m_GameObject: {fileID: 0}
  m_Enabled: 1
  m_EditorHideFlags: 0
  m_Script: {fileID: 11500000, guid: a6b2fab2d0966b44f819589503b05903, type: 3}
  m_Name: CustC
  m_EditorClassIdentifier: 
  customerName: cust3
  customerType: 2
  customerFaction: 2
  curState: 
  order: 0
  HowManyToEat: 1
  HowLongShouldIWaitForService: 5
  curAnimationState: 
  CustomerBody: {fileID: 297463586983852452, guid: 8f3141e604735554ba979e6b418a3267,
    type: 3}
  RepDown: 2
  RepUp: 5
  HowSlowIEat: 12
  ShouldIGoToCounter: 1
  Go2CounterStartThisDialog: 
  EventId: event1
  DialogTexts: []
  SmallTalkPoolName: DefaultPool
